<?xml version="1.0" encoding="utf-8"?>
<!-- Generator: Adobe Illustrator 16.0.0, SVG Export Plug-In . SVG Version: 6.00 Build 0)  -->
<!DOCTYPE svg PUBLIC "-//W3C//DTD SVG 1.1//EN" "http://www.w3.org/Graphics/SVG/1.1/DTD/svg11.dtd">
<svg version="1.1" id="Layer_1" xmlns="http://www.w3.org/2000/svg" xmlns:xlink="http://www.w3.org/1999/xlink" x="0px" y="0px"
	 width="5669.29px" height="992.129px" viewBox="0 0 5669.29 992.129" enable-background="new 0 0 5669.29 992.129"
	 xml:space="preserve">
<path d="M2869.618,0.248c-0.041,1.153-0.119,2.307-0.119,3.461c-0.006,64.464-0.005,128.928-0.005,193.393c0,1.062,0,2.122,0,3.475
	c-23.087-2.633-45.95-2.699-69.201,0.041c0-1.21,0-2.238,0-3.268c0-64.547,0.001-129.094-0.005-193.641
	c0-1.154-0.078-2.308-0.119-3.461C2823.319,0.248,2846.467,0.248,2869.618,0.248z"/>
<path d="M2338.829,461.588c1.152,0.041,2.307,0.118,3.46,0.118c64.465,0.007,128.929,0.006,193.394,0.006c1.059,0,2.118,0,3.474,0
	c-2.633,23.087-2.699,45.95,0.04,69.201c-1.209,0-2.238,0-3.266,0c-64.547,0-129.095-0.001-193.642,0.005
	c-1.153,0-2.308,0.078-3.46,0.119C2338.829,507.887,2338.829,484.739,2338.829,461.588z"/>
<path d="M2834.924,249.178c4.205,6.998,8.26,13.743,12.311,20.493c45.039,75.066,90.072,150.138,135.159,225.177
	c0.897,1.493,1,2.801,0.61,4.357c-15.378,61.472-30.745,122.945-46.113,184.419c-0.816,3.261-1.554,6.543-2.514,9.761
	c-0.209,0.697-1.217,1.649-1.859,1.652c-19.015,0.076-38.029,0.049-57.044,0.029c-0.151,0-0.302-0.095-0.772-0.254
	c0-0.937,0-1.979,0-3.023c0-40.015,0.004-80.029-0.002-120.044c-0.002-19.577-12.93-35.829-32.076-39.635
	c-22.993-4.57-44.232,11.491-47.059,33.479c-0.283,2.204-0.461,4.438-0.462,6.658c-0.027,39.767-0.02,79.533-0.02,119.3
	c0,1.066,0,2.132,0,3.433c-0.927,0.049-1.72,0.126-2.513,0.127c-18.105,0.007-36.211-0.025-54.316,0.049
	c-1.939,0.008-2.583-0.599-3.053-2.481c-16.092-64.504-32.268-128.986-48.355-193.491c-0.313-1.258-0.148-2.993,0.502-4.08
	c48.67-81.237,97.411-162.431,146.148-243.626C2833.906,250.793,2834.336,250.124,2834.924,249.178z"/>
<path d="M2613.75,695.723c-17.572,17.359-35.02,34.597-52.582,51.948c-0.557-0.505-1.068-0.893-1.49-1.361
	c-29.795-33.1-53.32-70.132-69.839-111.537c-0.729-1.826-1.693-2.204-3.476-2.201c-31.496,0.049-62.991,0.034-94.486,0.034
	c-0.984,0-1.969,0-3.135,0c0-23.896,0-47.644,0-71.681c1.005,0,1.971,0,2.936,0c49.848,0,99.695,0.019,149.543-0.062
	c2.33-0.004,3.271,0.626,3.773,2.891c5.682,25.625,14.993,49.916,27.371,73.024c10.875,20.302,23.933,39.112,39.232,56.348
	C2612.299,693.916,2612.948,694.751,2613.75,695.723z"/>
<path d="M3056.084,695.775c4.072-4.914,8.035-9.556,11.845-14.32c22.466-28.106,39.225-59.309,50.257-93.544
	c2.594-8.047,4.631-16.277,6.722-24.475c0.507-1.982,1.212-2.568,3.255-2.562c24.552,0.079,49.104,0.052,73.655,0.052
	c25.378,0,50.757,0,76.136,0c0.98,0,1.961,0,3.105,0c0,23.926,0,47.674,0,71.681c-1.055,0-2.023,0-2.992,0
	c-31.578,0-63.156,0.006-94.736-0.015c-1.477-0.001-2.566,0.073-3.252,1.8c-16.195,40.804-39.199,77.39-68.399,110.12
	c-0.923,1.034-1.859,2.057-2.952,3.263C3091.135,730.399,3073.69,713.165,3056.084,695.775z"/>
<path d="M2770.142,942.535c-23.845,0-47.534,0-71.543,0c0-1.044,0-2.005,0-2.966c0-31.578-0.007-63.156,0.019-94.735
	c0.001-1.581-0.115-2.666-1.954-3.397c-40.549-16.132-76.959-38.958-109.534-67.954c-0.988-0.879-1.99-1.743-2.971-2.629
	c-0.178-0.159-0.29-0.392-0.605-0.83c17.256-17.469,34.532-34.958,51.959-52.599c3.023,2.605,5.851,5.12,8.76,7.535
	c29.182,24.22,61.672,42.514,97.783,54.195c8.67,2.805,17.533,5.013,26.343,7.367c1.372,0.366,1.909,0.771,1.908,2.229
	c-0.035,50.922-0.033,101.844-0.041,152.766C2770.265,941.763,2770.208,942.006,2770.142,942.535z"/>
<path d="M3086.42,770.209c-5.106,4.425-9.883,8.747-14.852,12.837c-23.385,19.244-48.682,35.529-75.998,48.617
	c-7.212,3.455-14.609,6.534-21.996,9.606c-1.814,0.755-2.441,1.593-2.437,3.578c0.07,31.495,0.05,62.991,0.05,94.487
	c0,0.982,0,1.966,0,3.13c-23.9,0-47.648,0-71.682,0c0-1.012,0-1.977,0-2.943c0-49.848,0.02-99.695-0.063-149.542
	c-0.004-2.339,0.641-3.269,2.897-3.769c25.462-5.648,49.606-14.881,72.588-27.144c20.467-10.921,39.421-24.057,56.782-39.465
	c0.789-0.7,1.625-1.347,2.594-2.146C3051.667,735.031,3068.903,752.478,3086.42,770.209z"/>
<path d="M2770.281,50.129c0,1.037,0,1.929,0,2.819c0,49.931-0.017,99.861,0.054,149.791c0.004,2.197-0.483,3.123-2.744,3.628
	c-25.369,5.649-49.457,14.803-72.381,26.995c-20.629,10.973-39.727,24.187-57.201,39.724c-0.736,0.655-1.52,1.261-2.52,2.088
	c-17.328-17.538-34.607-35.028-52.302-52.937c0.821-0.588,1.536-1.005,2.14-1.547c21.732-19.508,45.19-36.656,70.953-50.413
	c12.934-6.907,26.467-12.697,39.789-18.863c1.803-0.835,2.59-1.615,2.584-3.728c-0.078-31.495-0.054-62.991-0.054-94.487
	c0-0.975,0-1.948,0-3.07C2722.505,50.129,2746.196,50.129,2770.281,50.129z"/>
<path d="M3034.276,275.2c-3.004-2.589-5.83-5.099-8.734-7.515c-29.1-24.195-61.545-42.408-97.537-54.151
	c-8.738-2.852-17.693-5.05-26.581-7.428c-1.341-0.359-1.946-0.704-1.944-2.198c0.039-51.005,0.04-102.011,0.05-153.015
	c0-0.163,0.049-0.326,0.109-0.702c23.712,0,47.46,0,71.55,0c0,0.915,0,1.872,0,2.83c0,31.496,0.023,62.991-0.053,94.487
	c-0.005,2.157,0.621,3.119,2.65,3.934c40.268,16.137,76.465,38.846,108.847,67.679c1.167,1.04,2.337,2.078,3.747,3.332
	C3068.995,240.052,3051.718,257.542,3034.276,275.2z"/>
<path d="M2561.043,244.833c17.671,17.456,35.073,34.648,52.718,52.079c-2.597,3.036-5.185,5.992-7.694,9.012
	c-17.774,21.376-32.346,44.741-43.586,70.178c-7.633,17.272-13.572,35.107-17.747,53.517c-0.425,1.87-1.212,2.113-2.821,2.109
	c-16.451-0.045-32.9-0.027-49.352-0.027c-33.563,0-67.125,0-100.688,0c-0.982,0-1.967,0-3.132,0c0-23.898,0-47.646,0-71.682
	c1.008,0,1.974,0,2.938,0c31.414,0,62.826-0.023,94.239,0.051c2.212,0.005,3.278-0.562,4.142-2.718
	c16.125-40.274,38.856-76.458,67.691-108.836C2558.788,247.355,2559.825,246.196,2561.043,244.833z"/>
<path d="M3281.112,360.019c0,23.975,0,47.664,0,71.682c-0.946,0-1.824,0-2.701,0c-50.012,0-100.025-0.021-150.037,0.063
	c-2.309,0.004-3.084-0.723-3.557-2.843c-5.698-25.532-14.942-49.755-27.262-72.807c-10.896-20.389-23.99-39.267-39.329-56.576
	c-0.704-0.793-1.358-1.63-2.19-2.634c17.543-17.332,34.99-34.569,53.193-52.554c0.421,0.816,0.663,1.675,1.198,2.271
	c27.258,30.368,49.26,64.124,65.558,101.563c1.316,3.025,2.715,6.034,3.735,9.162c0.729,2.229,1.929,2.729,4.144,2.724
	c31.33-0.075,62.66-0.051,93.991-0.051C3278.842,360.019,3279.832,360.019,3281.112,360.019z"/>
<path d="M3131.129,530.772c0.512-11.519,1.416-22.947,1.416-34.376c-0.002-11.448-0.906-22.896-1.422-34.508
	c66.228,0,132.793,0,199.534,0c0,22.906,0,45.824,0,68.884C3264.032,530.772,3197.463,530.772,3131.129,530.772z"/>
<path d="M2869.37,992.132c-23.01,0-45.869,0-68.902,0c0-66.611,0-133.176,0-200.066c22.939,2.641,45.861,2.658,68.902-0.017
	C2869.37,858.814,2869.37,925.324,2869.37,992.132z"/>
</svg>
